x_tx,y_tx,z_tx,x_rx,y_rx,z_rx,throughput_kbps
0,0,0,2,0,0,28907.2
0,0,0,2,2,0,28866.9
0,0,0,2,4,0,28857.9
0,0,0,2,5,0,28757.1
0,0,0,2,6,0,26196.8
0,0,0,2,7,0,19479
0,0,0,3,0,0,28840
0,0,0,4,0,0,28754.9
0,0,0,5,0,0,28678.7
0,0,0,6,0,0,27048
0,0,0,7,0,0,21295.7
0,0,0,8,0,0,20059.2
0,0,0,9,0,0,20556.5
0,0,0,10,0,0,20527.4
0,0,0,11,0,0,20005.4
0,0,0,12,0,0,16549.1
0,0,0,13,0,0,15245.4
0,0,0,14,0,0,15142.4
0,0,0,15,0,0,15017
0,0,0,16,0,0,14672
0,0,0,17,0,0,12947.2
0,0,0,18,0,0,12416.3
0,0,0,19,0,0,11961.6
0,0,0,20,0,0,12107.2
0,0,0,21,0,0,12113.9
0,0,0,22,0,0,12084.8
0,0,0,23,0,0,11910.1
0,0,0,24,0,0,11361.3
