x_tx,y_tx,z_tx,x_rx,y_rx,z_rx,throughput_kbps
0,0,0,2,0,0,28842.2
0,0,0,2,2,0,28857.9
0,0,0,2,4,0,28835.5
0,0,0,2,5,0,28730.2
0,0,0,2,6,0,26237.1
0,0,0,2,7,0,19055.7
0,0,0,3,0,0,28840
0,0,0,4,0,0,28788.5
0,0,0,5,0,0,28692.2
0,0,0,6,0,0,26904.6
0,0,0,7,0,0,21976.6
0,0,0,8,0,0,19965.1
0,0,0,9,0,0,20552
0,0,0,10,0,0,20518.4
0,0,0,11,0,0,19913.6
0,0,0,12,0,0,16649.9
0,0,0,13,0,0,15182.7
0,0,0,14,0,0,15008
0,0,0,15,0,0,14920.6
0,0,0,16,0,0,14530.9
0,0,0,17,0,0,12848.6
0,0,0,18,0,0,11211.2
0,0,0,19,0,0,12037.8
0,0,0,20,0,0,12111.7
0,0,0,21,0,0,12158.7
0,0,0,22,0,0,12087
0,0,0,23,0,0,11883.2
0,0,0,24,0,0,11428.5
