x_tx,y_tx,z_tx,x_rx,y_rx,z_rx,throughput_kbps
0,0,0,2,0,0,28813.1
0,0,0,2,2,0,28851.2
0,0,0,2,4,0,28853.4
0,0,0,2,5,0,28719
0,0,0,2,6,0,26163.2
0,0,0,2,7,0,18919
0,0,0,3,0,0,28835.5
0,0,0,4,0,0,28831
0,0,0,5,0,0,28694.4
0,0,0,6,0,0,26906.9
0,0,0,7,0,0,21745.9
0,0,0,8,0,0,20081.6
0,0,0,9,0,0,20547.5
0,0,0,10,0,0,20469.1
0,0,0,11,0,0,20016.6
0,0,0,12,0,0,16609.6
0,0,0,13,0,0,15030.4
0,0,0,14,0,0,15187.2
0,0,0,15,0,0,15086.4
0,0,0,16,0,0,14649.6
0,0,0,17,0,0,12992
0,0,0,18,0,0,12187.8
0,0,0,19,0,0,12044.5
0,0,0,20,0,0,12040
0,0,0,21,0,0,12172.2
0,0,0,22,0,0,12134.1
0,0,0,23,0,0,11937
0,0,0,24,0,0,11437.4
