x_tx,y_tx,z_tx,x_rx,y_rx,z_rx,throughput_kbps
0,0,0,2,0,0,11762.2
0,0,0,2,2,0,14508.5
0,0,0,2,4,0,14257.6
0,0,0,2,5,0,12649.3
0,0,0,2,6,0,11809.3
0,0,0,2,7,0,11726.4
0,0,0,3,0,0,10245.8
0,0,0,4,0,0,11352.3
0,0,0,5,0,0,11336.6
0,0,0,6,0,0,10769.9
0,0,0,7,0,0,9956.8
0,0,0,8,0,0,10575
0,0,0,9,0,0,10400.3
0,0,0,10,0,0,10248
0,0,0,11,0,0,9867.2
0,0,0,12,0,0,9654.4
0,0,0,13,0,0,9649.92
0,0,0,14,0,0,9672.32
0,0,0,15,0,0,9421.44
0,0,0,16,0,0,9367.68
0,0,0,17,0,0,9757.44
0,0,0,18,0,0,9201.92
0,0,0,19,0,0,8456
0,0,0,20,0,0,8897.28
0,0,0,21,0,0,9089.92
0,0,0,22,0,0,8279.04
0,0,0,23,0,0,8402.24
0,0,0,24,0,0,8238.72
