x_tx,y_tx,z_tx,x_rx,y_rx,z_rx,throughput_kbps
0,0,0,2,0,0,11681.6
0,0,0,2,2,0,14058.2
0,0,0,2,4,0,13957.4
0,0,0,2,5,0,12474.6
0,0,0,2,6,0,11574.1
0,0,0,2,7,0,10709.4
0,0,0,3,0,0,10575
0,0,0,4,0,0,10825.9
0,0,0,5,0,0,10940.2
0,0,0,6,0,0,10243.5
0,0,0,7,0,0,9372.16
0,0,0,8,0,0,10729.6
0,0,0,9,0,0,10059.8
0,0,0,10,0,0,9775.36
0,0,0,11,0,0,9721.6
0,0,0,12,0,0,9820.16
0,0,0,13,0,0,10113.6
0,0,0,14,0,0,9661.12
0,0,0,15,0,0,9513.28
0,0,0,16,0,0,9421.44
0,0,0,17,0,0,9033.92
0,0,0,18,0,0,9531.2
0,0,0,19,0,0,8998.08
0,0,0,20,0,0,8942.08
0,0,0,21,0,0,8429.12
0,0,0,22,0,0,8379.84
0,0,0,23,0,0,8529.92
0,0,0,24,0,0,8438.08
