x_tx,y_tx,z_tx,x_rx,y_rx,z_rx,throughput_kbps
0,0,0,2,0,0,11580.8
0,0,0,2,2,0,14360.6
0,0,0,2,4,0,14304.6
0,0,0,2,5,0,12763.5
0,0,0,2,6,0,11818.2
0,0,0,2,7,0,11578.6
0,0,0,3,0,0,11253.8
0,0,0,4,0,0,10781.1
0,0,0,5,0,0,10127
0,0,0,6,0,0,10890.9
0,0,0,7,0,0,10440.6
0,0,0,8,0,0,10913.3
0,0,0,9,0,0,10127
0,0,0,10,0,0,10328.6
0,0,0,11,0,0,10104.6
0,0,0,12,0,0,10133.8
0,0,0,13,0,0,10071
0,0,0,14,0,0,9959.04
0,0,0,15,0,0,9125.76
0,0,0,16,0,0,9679.04
0,0,0,17,0,0,9092.16
0,0,0,18,0,0,9356.48
0,0,0,19,0,0,9376.64
0,0,0,20,0,0,9069.76
0,0,0,21,0,0,8520.96
0,0,0,22,0,0,8673.28
0,0,0,23,0,0,8458.24
0,0,0,24,0,0,8429.12
