x_tx,y_tx,z_tx,x_rx,y_rx,z_rx,throughput_kbps
0,0,0,2,0,0,28806.4
0,0,0,2,2,0,28855.7
0,0,0,2,4,0,28817.6
0,0,0,2,5,0,28853.4
0,0,0,2,6,0,28750.4
0,0,0,2,7,0,28627.2
0,0,0,3,0,0,28788.5
0,0,0,4,0,0,28864.6
0,0,0,5,0,0,28837.8
0,0,0,6,0,0,28866.9
0,0,0,7,0,0,28622.7
0,0,0,8,0,0,27697.6
0,0,0,9,0,0,26015.4
0,0,0,10,0,0,21145.6
0,0,0,11,0,0,20966.4
0,0,0,12,0,0,18562.9
0,0,0,13,0,0,20603.5
0,0,0,14,0,0,20502.7
0,0,0,15,0,0,20489.3
0,0,0,16,0,0,20406.4
0,0,0,17,0,0,19920.3
0,0,0,18,0,0,18217.9
0,0,0,19,0,0,14976.6
0,0,0,20,0,0,14353.9
0,0,0,21,0,0,14918.4
0,0,0,22,0,0,15102.1
0,0,0,23,0,0,15081.9
0,0,0,24,0,0,15057.3
