x_tx,y_tx,z_tx,x_rx,y_rx,z_rx,throughput_kbps
0,0,0,2,0,0,28891.5
0,0,0,2,2,0,28828.8
0,0,0,2,4,0,28804.2
0,0,0,2,5,0,28797.4
0,0,0,2,6,0,28761.6
0,0,0,2,7,0,28553.3
0,0,0,3,0,0,28819.8
0,0,0,4,0,0,28864.6
0,0,0,5,0,0,28869.1
0,0,0,6,0,0,28837.8
0,0,0,7,0,0,28669.8
0,0,0,8,0,0,27525.1
0,0,0,9,0,0,25881
0,0,0,10,0,0,20874.6
0,0,0,11,0,0,20807.4
0,0,0,12,0,0,18553.9
0,0,0,13,0,0,20608
0,0,0,14,0,0,20547.5
0,0,0,15,0,0,20518.4
0,0,0,16,0,0,20368.3
0,0,0,17,0,0,19915.8
0,0,0,18,0,0,18083.5
0,0,0,19,0,0,14784
0,0,0,20,0,0,15283.5
0,0,0,21,0,0,14855.7
0,0,0,22,0,0,14969.9
0,0,0,23,0,0,15068.5
0,0,0,24,0,0,15014.7
